Aluno;Grupo;"Papel no grupo";"Nota inicial";"Nota final";Intervenções;"Intervenções relevantes";"Intervenções solícitas";"Tamanho médio mensagens do aluno";"Tamanho médio mensagens dos alunos não solícitos";"Tamanho médio mensagens relevantes";"Quantidade de perguntas do grupo";"Quantidade de perguntas respondidas";"Índice de participação";"% de mensagens classificadas solícitas pelo minerador";"% de mensagens consideradas relevantes";"Observável S";"Observável P";"Observável R";"Solícito ativo"
"CESAR AUGUSTO MATIELLO ZANOTELLI";AMETISTA;B;8.80;;0;0;0;;;;7;0;0.00;0.00;0.00;0;0;0;0
"CRISTIAN VALENTINI";AMETISTA;B;7.50;;0;0;0;;;;7;0;0.00;0.00;0.00;0;0;0;0
"FERNANDO ZANATTA KOLLING";AMETISTA;A;9.40;;0;0;1;;;;7;0;0.00;0.00;0.00;0;0;0;0
"GABRIEL GLOWACKI MINETTO";AMETISTA;A;10.00;;7;0;5;205.25;404.00;;7;3;0.43;0.71;0.00;1;0;0;0
"HENRIQUE CARON";AMETISTA;C;6.90;;5;0;1;220.00;53.00;;7;3;0.43;0.20;0.00;0;1;0;0
"JOAO ANTONIO MATTUELLA AGOSTINI";AMETISTA;C;7.20;;3;0;0;75.00;75.00;;7;2;0.29;0.00;0.00;0;0;0;0
"ANDRE BASSETTO GRACIOLI";ESMERALDA;A;8.80;;2;0;1;;;;2;1;0.50;0.50;0.00;0;0;0;0
"ANDREAS DIAS SILVA";ESMERALDA;B;9.00;;0;0;0;;;;2;0;0.00;0.00;0.00;0;0;0;0
"ARTHUR HEINEN LENHARDT";ESMERALDA;B;3.80;;0;0;0;;;;2;0;0.00;0.00;0.00;0;0;0;0
"AUGUSTO RABAIOLI";ESMERALDA;C;7.20;;0;0;0;;;;2;0;0.00;0.00;0.00;0;0;0;0
"BRUNO MIGUEL DOS REIS";ESMERALDA;A;10.00;;2;0;1;99.00;99.00;;2;1;0.50;0.50;0.00;0;0;0;0
"CARLOS FREDERICO WIEBBELLING ETGES";ESMERALDA;C;5.00;;0;0;0;;;;2;0;0.00;0.00;0.00;0;0;0;0
"AUGUSTO ZENI";RUBI;B;7.20;;0;0;0;;;;0;0;0.00;0.00;0.00;0;0;0;0
"CALIL DORNELES CARDOSO";RUBI;B;7.50;;0;0;0;;;;0;0;0.00;0.00;0.00;0;0;0;0
"EDUARDA BOSSLE HEXSEL";RUBI;A;9.70;;0;0;0;;;;0;0;0.00;0.00;0.00;0;0;0;0
"ENZO FELIPE BERGMANN SCHUH";RUBI;A;9.70;;0;0;0;;;;0;0;0.00;0.00;0.00;0;0;0;0
"EZEQUIEL PEDARSINI";RUBI;C;6.30;;0;0;0;;;;0;0;0.00;0.00;0.00;0;0;0;0
"GUILHERME DE JESUS MARTINS VOLLBRECHT";RUBI;C;5.00;;0;0;0;;;;0;0;0.00;0.00;0.00;0;0;0;0
"LEONARDO DA SILVA HEMMING";SAFIRA;A;8.80;;3;0;1;729.00;;;5;2;0.40;0.33;0.00;0;0;0;0
"LEONARDO HENTSCHKE";SAFIRA;C;5.00;;0;0;0;;;;5;0;0.00;0.00;0.00;0;0;0;0
"LUCAS PIERRE FIORENTIM CHIESA";SAFIRA;C;7.50;;1;0;0;1.00;1.00;;5;0;0.00;0.00;0.00;0;0;0;0
"OCTAVIO AUGUSTO LUZ SANTOS";SAFIRA;A;8.80;;0;0;0;;;;5;0;0.00;0.00;0.00;0;0;0;0
"RIAN AUGUSTO WELP";SAFIRA;B;7.50;;4;0;4;232.67;199.00;;5;1;0.20;1.00;0.00;1;0;0;0
"GABRIELLI SARTORI";TURMALINA;A;10.00;;0;0;0;;;;1;0;0.00;0.00;0.00;0;0;0;0
"GUILHERME HENRIQUE VILLA VAN LEEUWEN";TURMALINA;A;9.40;;0;0;0;;;;1;0;0.00;0.00;0.00;0;0;0;0
"JOSE VICTOR CASARIL SANTOS";TURMALINA;C;5.00;;1;0;1;309.00;;;1;0;0.00;1.00;0.00;1;0;0;0
"LUCIANO FRONCHETTI";TURMALINA;B;10.00;;0;0;0;;;;1;0;0.00;0.00;0.00;0;0;0;0
"MATHEUS FORMENTINI ORBACH";TURMALINA;B;7.20;;0;0;0;;;;1;0;0.00;0.00;0.00;0;0;0;0
