Codigo;Nome;Email
577993;ARTHUR CORBELLINI;arthur.corbellini@universo.univates.br
604310;BRUNO FOGLIATTO LOPES;bruno.lopes1@universo.univates.br
567512;CRISTIAN SCHEID;cristian.scheid@universo.univates.br
551911;DAIANA MACHADO DA COSTA;dmcosta@universo.univates.br
642571;EDSON JUNIOR DA ROSA TOLAZZI;edson.tolazzi@universo.univates.br
716055;EDUARDO LONGHI SCOPEL;eduardo.scopel@universo.univates.br
676874;ENZO WEINBERGER MOSMAN;enzo.mosman@universo.univates.br
707186;FELIPE FERREIRA BARBOSA;felipe.barbosa@universo.univates.br
568964;FELIPE FRITZ FRANCESCHI;felipe.franceschi@universo.univates.br
710399;FELIPE JOAO TASCA CAMPANA;felipe.campana@universo.univates.br
687940;FRANCISCO DELLA GIUSTINA CAVASAN;francisco.cavasan@universo.univates.br
534243;GERALDO ARMIN FENSTERSEIFER JUNIOR;gjunior2@universo.univates.br
628520;GUILHERME KEUNECKE BANGEMANN;guilherme.bangemann@universo.univates.br
656187;JOAO HENRIQUE NUNES DE CAMPOS;joao.campos@universo.univates.br
638078;JOAO PEDRO MULLER LIMA;joao.lima2@universo.univates.br
676876;JOAO PEDRO WUNSCH KROTH;joao.kroth@universo.univates.br
654070;JORGE ALUIS ROCKENBACH;jorge.rockenbach@universo.univates.br
645996;LUCAS MICHEL DA SILVA;lucas.silva15@universo.univates.br
581103;LUCAS PEREIRA VARGAS;lucas.vargas@universo.univates.br
709945;LUCCA KEUNECKE ISSE;lucca.isse@universo.univates.br
632462;LUIZ FELIPE MARQUES GARSKE;luiz.garske@universo.univates.br
658266;MARCELO TURATTI FRAPORTI;marcelo.fraporti@universo.univates.br
645947;PEDRO REIS JUNG;pedro.jung1@universo.univates.br
